<?xml version="1.0" standalone="no"?>
<!DOCTYPE svg PUBLIC "-//W3C//DTD SVG 20010904//EN"
 "http://www.w3.org/TR/2001/REC-SVG-20010904/DTD/svg10.dtd">
<svg version="1.0" xmlns="http://www.w3.org/2000/svg"
 width="512.000000pt" height="512.000000pt" viewBox="0 0 512.000000 512.000000"
 preserveAspectRatio="xMidYMid meet">
<metadata>
Created by potrace 1.14, written by Peter Selinger 2001-2017
</metadata>
<g transform="translate(0.000000,512.000000) scale(0.100000,-0.100000)"
fill="#000000" stroke="none">
<path d="M963 5100 c-93 -33 -166 -101 -210 -195 l-28 -60 -3 -2178 c-2 -2398
-6 -2239 59 -2370 42 -82 154 -194 236 -236 129 -65 20 -61 1758 -61 l1582 0
21 23 c20 21 22 34 22 143 0 113 -1 122 -23 142 l-23 22 -1570 2 -1571 3 -49
30 c-30 19 -60 49 -79 79 l-30 49 0 156 c0 142 2 160 22 198 27 51 82 96 132
112 28 8 456 11 1588 11 l1550 0 27 21 26 20 0 2030 0 2030 -25 24 -24 25
-1668 0 c-1608 -1 -1670 -1 -1720 -20z m2787 -580 c19 -19 20 -33 20 -390 0
-357 -1 -371 -20 -390 -20 -20 -33 -20 -905 -20 -872 0 -885 0 -905 20 -19 19
-20 33 -20 388 0 316 2 371 16 390 l15 22 890 0 c876 0 889 0 909 -20z m-277
-1821 c24 -11 47 -47 47 -73 0 -7 -9 -25 -21 -40 l-20 -26 -634 0 -634 0 -20
26 c-12 15 -21 33 -21 40 0 25 22 62 44 72 31 15 1227 16 1259 1z m0 -370 c24
-11 47 -47 47 -73 0 -7 -9 -25 -21 -40 l-20 -26 -634 0 -634 0 -20 26 c-12 15
-21 33 -21 40 0 25 22 62 44 72 31 15 1227 16 1259 1z"/>
</g>
</svg>
